   1               		.file	"matrix.c"
   2               	__SREG__ = 0x3f
   3               	__SP_H__ = 0x3e
   4               	__SP_L__ = 0x3d
   5               	__CCP__  = 0x34
   6               	__tmp_reg__ = 0
   7               	__zero_reg__ = 1
  15               	.Ltext0:
  16               	.global	delay_ms
  18               	delay_ms:
  19               	.LFB7:
  20               	.LM1:
  21               	.LVL0:
  22               	/* prologue: function */
  23               	/* frame size = 0 */
  24               	.LM2:
  25 0000 9C01      		movw r18,r24
  26               	.LVL1:
  27 0002 220F      		lsl r18
  28 0004 331F      		rol r19
  29               	.LVL2:
  30               	.LM3:
  31 0006 1092 0000 		sts (counter)+1,__zero_reg__
  32 000a 1092 0000 		sts counter,__zero_reg__
  33               	.L2:
  34               	.LM4:
  35 000e 8091 0000 		lds r24,counter
  36 0012 9091 0000 		lds r25,(counter)+1
  37 0016 8217      		cp r24,r18
  38 0018 9307      		cpc r25,r19
  39 001a 00F0      		brlo .L2
  40               	/* epilogue start */
  41               	.LM5:
  42 001c 0895      		ret
  43               	.LFE7:
  45               	.global	copy_to_display
  47               	copy_to_display:
  48               	.LFB8:
  49               	.LM6:
  50               	.LVL3:
  51 001e 1F93      		push r17
  52               	/* prologue: function */
  53               	/* frame size = 0 */
  54 0020 162F      		mov r17,r22
  55 0022 BA01      		movw r22,r20
  56               	.LVL4:
  57               	.LM7:
  58 0024 20E0      		ldi r18,lo8(0)
  59 0026 30E0      		ldi r19,hi8(0)
  60 0028 A82F      		mov r26,r24
  61 002a BB27      		clr r27
  62 002c A7FD      		sbrc r26,7
  63 002e B095      		com r27
  64               	.LVL5:
  65               	.LM8:
  66 0030 4427      		clr r20
  67 0032 5527      		clr r21
  68 0034 4A1B      		sub r20,r26
  69 0036 5B0B      		sbc r21,r27
  70               	.LVL6:
  71               	.L10:
  72               	.LM9:
  73 0038 E22F      		mov r30,r18
  74 003a E11B      		sub r30,r17
  75               	.LM10:
  76 003c E830      		cpi r30,lo8(8)
  77 003e 00F0      		brlo .L6
  78 0040 E0E0      		ldi r30,lo8(0)
  79               	.LVL7:
  80 0042 00C0      		rjmp .L7
  81               	.LVL8:
  82               	.L6:
  83 0044 FF27      		clr r31
  84 0046 E7FD      		sbrc r30,7
  85 0048 F095      		com r31
  86 004a E60F      		add r30,r22
  87 004c F71F      		adc r31,r23
  88 004e E081      		ld r30,Z
  89               	.LVL9:
  90               	.L7:
  91 0050 F0E0      		ldi r31,lo8(0)
  92               	.LM11:
  93 0052 87FD      		sbrc r24,7
  94 0054 00C0      		rjmp .L8
  95               	.LVL10:
  96 0056 0A2E      		mov r0,r26
  97 0058 00C0      		rjmp 2f
  98 005a F595      	1:	asr r31
  99 005c E795      		ror r30
 100 005e 0A94      	2:	dec r0
 101 0060 02F4      		brpl 1b
 102               	.LVL11:
 103 0062 00C0      		rjmp .L13
 104               	.L8:
 105 0064 042E      		mov r0,r20
 106 0066 00C0      		rjmp 2f
 107 0068 EE0F      	1:	lsl r30
 108 006a FF1F      		rol r31
 109 006c 0A94      	2:	dec r0
 110 006e 02F4      		brpl 1b
 111               	.LVL12:
 112               	.L13:
 113 0070 9E2F      		mov r25,r30
 114               	.LM12:
 115 0072 F901      		movw r30,r18
 116               	.LVL13:
 117 0074 E050      		subi r30,lo8(-(screen_mem))
 118 0076 F040      		sbci r31,hi8(-(screen_mem))
 119 0078 9083      		st Z,r25
 120 007a 2F5F      		subi r18,lo8(-(1))
 121 007c 3F4F      		sbci r19,hi8(-(1))
 122               	.LM13:
 123 007e 2830      		cpi r18,8
 124 0080 3105      		cpc r19,__zero_reg__
 125 0082 01F4      		brne .L10
 126               	/* epilogue start */
 127               	.LM14:
 128 0084 1F91      		pop r17
 129               	.LVL14:
 130 0086 0895      		ret
 131               	.LFE8:
 133               	.global	display_active_row
 135               	display_active_row:
 136               	.LFB9:
 137               	.LM15:
 138               	/* prologue: function */
 139               	/* frame size = 0 */
 140               	.LM16:
 141 0088 83E0      		ldi r24,lo8(3)
 142 008a 8BBB      		out 59-32,r24
 143               	.LM17:
 144 008c 86ED      		ldi r24,lo8(-42)
 145 008e 88BB      		out 56-32,r24
 146               	.LM18:
 147 0090 88E0      		ldi r24,lo8(8)
 148 0092 82BB      		out 50-32,r24
 149               	.LM19:
 150 0094 E091 0000 		lds r30,active_row
 151 0098 F0E0      		ldi r31,lo8(0)
 152 009a 3196      		adiw r30,1
 153 009c E770      		andi r30,lo8(7)
 154 009e F070      		andi r31,hi8(7)
 155 00a0 E093 0000 		sts active_row,r30
 156               	.LM20:
 157 00a4 8E2F      		mov r24,r30
 158 00a6 E050      		subi r30,lo8(-(screen_mem))
 159 00a8 F040      		sbci r31,hi8(-(screen_mem))
 160 00aa E081      		ld r30,Z
 161               	.LVL15:
 162               	.LM21:
 163 00ac E7FD      		sbrc r30,7
 164               	.LM22:
 165 00ae C498      		cbi 56-32,4
 166               	.L15:
 167               	.LM23:
 168 00b0 E6FD      		sbrc r30,6
 169               	.LVL16:
 170               	.LM24:
 171 00b2 D998      		cbi 59-32,1
 172               	.L16:
 173               	.LM25:
 174 00b4 E5FD      		sbrc r30,5
 175               	.LM26:
 176 00b6 D898      		cbi 59-32,0
 177               	.L17:
 178               	.LM27:
 179 00b8 E4FD      		sbrc r30,4
 180               	.LM28:
 181 00ba C198      		cbi 56-32,1
 182               	.L18:
 183               	.LM29:
 184 00bc E3FD      		sbrc r30,3
 185               	.LM30:
 186 00be 9398      		cbi 50-32,3
 187               	.L19:
 188               	.LM31:
 189 00c0 E2FD      		sbrc r30,2
 190               	.LM32:
 191 00c2 C298      		cbi 56-32,2
 192               	.L20:
 193               	.LM33:
 194 00c4 E1FD      		sbrc r30,1
 195               	.LM34:
 196 00c6 C698      		cbi 56-32,6
 197               	.L21:
 198               	.LM35:
 199 00c8 E0FD      		sbrc r30,0
 200               	.LM36:
 201 00ca C798      		cbi 56-32,7
 202               	.L22:
 203               	.LM37:
 204 00cc E82F      		mov r30,r24
 205 00ce F0E0      		ldi r31,lo8(0)
 206 00d0 E830      		cpi r30,8
 207 00d2 F105      		cpc r31,__zero_reg__
 208 00d4 00F4      		brsh .L33
 209 00d6 E050      		subi r30,lo8(-(gs(.L32)))
 210 00d8 F040      		sbci r31,hi8(-(gs(.L32)))
 211 00da 0994      		ijmp
 212               		.data
 213               		.section .progmem.gcc_sw_table, "ax", @progbits
 214               		.p2align 1
 215               	.L32:
 216               		.data
 217               		.section .progmem.gcc_sw_table, "ax", @progbits
 218               		.p2align 1
 219 0000 00C0      		rjmp .L24
 220 0002 00C0      		rjmp .L25
 221 0004 00C0      		rjmp .L26
 222 0006 00C0      		rjmp .L27
 223 0008 00C0      		rjmp .L28
 224 000a 00C0      		rjmp .L29
 225 000c 00C0      		rjmp .L30
 226 000e 00C0      		rjmp .L31
 227               		.text
 228               	.L24:
 229               	.LM38:
 230 00dc C09A      		sbi 56-32,0
 231 00de 0895      		ret
 232               	.L25:
 233               	.LM39:
 234 00e0 C59A      		sbi 56-32,5
 235 00e2 0895      		ret
 236               	.L26:
 237               	.LM40:
 238 00e4 959A      		sbi 50-32,5
 239 00e6 0895      		ret
 240               	.L27:
 241               	.LM41:
 242 00e8 C39A      		sbi 56-32,3
 243 00ea 0895      		ret
 244               	.L28:
 245               	.LM42:
 246 00ec 909A      		sbi 50-32,0
 247 00ee 0895      		ret
 248               	.L29:
 249               	.LM43:
 250 00f0 949A      		sbi 50-32,4
 251 00f2 0895      		ret
 252               	.L30:
 253               	.LM44:
 254 00f4 919A      		sbi 50-32,1
 255 00f6 0895      		ret
 256               	.L31:
 257               	.LM45:
 258 00f8 929A      		sbi 50-32,2
 259               	.L33:
 260 00fa 0895      		ret
 261               	.LFE9:
 263               	.global	__vector_6
 265               	__vector_6:
 266               	.LFB6:
 267               	.LM46:
 268 00fc 1F92      		push __zero_reg__
 269 00fe 0F92      		push r0
 270 0100 0FB6      		in r0,__SREG__
 271 0102 0F92      		push r0
 272 0104 1124      		clr __zero_reg__
 273 0106 2F93      		push r18
 274 0108 3F93      		push r19
 275 010a 4F93      		push r20
 276 010c 5F93      		push r21
 277 010e 6F93      		push r22
 278 0110 7F93      		push r23
 279 0112 8F93      		push r24
 280 0114 9F93      		push r25
 281 0116 AF93      		push r26
 282 0118 BF93      		push r27
 283 011a EF93      		push r30
 284 011c FF93      		push r31
 285               	/* prologue: Signal */
 286               	/* frame size = 0 */
 287               	.LM47:
 288 011e 00D0      		rcall display_active_row
 289               	.LM48:
 290 0120 8091 0000 		lds r24,counter
 291 0124 9091 0000 		lds r25,(counter)+1
 292 0128 0196      		adiw r24,1
 293 012a 9093 0000 		sts (counter)+1,r25
 294 012e 8093 0000 		sts counter,r24
 295               	/* epilogue start */
 296               	.LM49:
 297 0132 FF91      		pop r31
 298 0134 EF91      		pop r30
 299 0136 BF91      		pop r27
 300 0138 AF91      		pop r26
 301 013a 9F91      		pop r25
 302 013c 8F91      		pop r24
 303 013e 7F91      		pop r23
 304 0140 6F91      		pop r22
 305 0142 5F91      		pop r21
 306 0144 4F91      		pop r20
 307 0146 3F91      		pop r19
 308 0148 2F91      		pop r18
 309 014a 0F90      		pop r0
 310 014c 0FBE      		out __SREG__,r0
 311 014e 0F90      		pop r0
 312 0150 1F90      		pop __zero_reg__
 313 0152 1895      		reti
 314               	.LFE6:
 316               	.global	show_char
 318               	show_char:
 319               	.LFB10:
 320               	.LM50:
 321               	/* prologue: function */
 322               	/* frame size = 0 */
 323               	.LM51:
 324 0154 A0E0      		ldi r26,lo8(screen_mem)
 325 0156 B0E0      		ldi r27,hi8(screen_mem)
 326               	.L37:
 327               	.LM52:
 328 0158 8C91      		ld r24,X
 329 015a 880F      		lsl r24
 330 015c 8D93      		st X+,r24
 331               	.LM53:
 332 015e 80E0      		ldi r24,hi8(screen_mem+8)
 333 0160 A030      		cpi r26,lo8(screen_mem+8)
 334 0162 B807      		cpc r27,r24
 335 0164 01F4      		brne .L37
 336               	.LM54:
 337 0166 9091 0000 		lds r25,char_ptr
 338 016a 8091 0000 		lds r24,char_length
 339 016e 9817      		cp r25,r24
 340 0170 01F4      		brne .L38
 341               	.LM55:
 342 0172 8091 0000 		lds r24,message_ptr
 343 0176 8F5F      		subi r24,lo8(-(1))
 344 0178 8093 0000 		sts message_ptr,r24
 345               	.LM56:
 346 017c 8823      		tst r24
 347 017e 01F4      		brne .L39
 348               	.LM57:
 349 0180 1092 0000 		sts message_ptr,__zero_reg__
 350               	.LM58:
 351 0184 8091 0000 		lds r24,message_displayed
 352 0188 8F5F      		subi r24,lo8(-(1))
 353 018a 8093 0000 		sts message_displayed,r24
 354               	.L39:
 355               	.LM59:
 356 018e E091 0000 		lds r30,message_ptr
 357 0192 F0E0      		ldi r31,lo8(0)
 358 0194 E050      		subi r30,lo8(-(buffer))
 359 0196 F040      		sbci r31,hi8(-(buffer))
 360 0198 E081      		ld r30,Z
 361 019a E052      		subi r30,lo8(-(-32))
 362 019c E093 0000 		sts active_char,r30
 363               	.LBB60:
 364               	.LM60:
 365 01a0 F0E0      		ldi r31,lo8(0)
 366 01a2 EE0F      		lsl r30
 367 01a4 FF1F      		rol r31
 368 01a6 EE0F      		lsl r30
 369 01a8 FF1F      		rol r31
 370 01aa E050      		subi r30,lo8(-(font+3))
 371 01ac F040      		sbci r31,hi8(-(font+3))
 372               	/* #APP */
 373               	 ;  355 "matrix.c" 1
 374 01ae E491      		lpm r30, Z
 375               		
 376               	 ;  0 "" 2
 377               	.LVL17:
 378               	/* #NOAPP */
 379               	.LBE60:
 380 01b0 E093 0000 		sts char_length,r30
 381               	.LM61:
 382 01b4 1092 0000 		sts char_ptr,__zero_reg__
 383 01b8 0895      		ret
 384               	.LVL18:
 385               	.L38:
 386               	.LBB61:
 387               	.LM62:
 388 01ba E091 0000 		lds r30,active_char
 389 01be F0E0      		ldi r31,lo8(0)
 390 01c0 EE0F      		lsl r30
 391 01c2 FF1F      		rol r31
 392 01c4 EE0F      		lsl r30
 393 01c6 FF1F      		rol r31
 394 01c8 E90F      		add r30,r25
 395 01ca F11D      		adc r31,__zero_reg__
 396 01cc E050      		subi r30,lo8(-(font))
 397 01ce F040      		sbci r31,hi8(-(font))
 398 01d0 9F5F      		subi r25,lo8(-(1))
 399 01d2 9093 0000 		sts char_ptr,r25
 400               	/* #APP */
 401               	 ;  360 "matrix.c" 1
 402 01d6 E491      		lpm r30, Z
 403               		
 404               	 ;  0 "" 2
 405               	.LVL19:
 406               	/* #NOAPP */
 407 01d8 1797      		sbiw r26,7
 408 01da 40E0      		ldi r20,lo8(0)
 409 01dc 50E0      		ldi r21,hi8(0)
 410               	.LBE61:
 411               	.LM63:
 412 01de 61E0      		ldi r22,lo8(1)
 413 01e0 70E0      		ldi r23,hi8(1)
 414 01e2 F0E0      		ldi r31,lo8(0)
 415               	.LVL20:
 416               	.L42:
 417 01e4 9B01      		movw r18,r22
 418 01e6 042E      		mov r0,r20
 419 01e8 00C0      		rjmp 2f
 420 01ea 220F      	1:	lsl r18
 421 01ec 331F      		rol r19
 422 01ee 0A94      	2:	dec r0
 423 01f0 02F4      		brpl 1b
 424 01f2 C901      		movw r24,r18
 425 01f4 8E23      		and r24,r30
 426 01f6 9F23      		and r25,r31
 427 01f8 8217      		cp r24,r18
 428 01fa 9307      		cpc r25,r19
 429 01fc 01F4      		brne .L41
 430               	.LM64:
 431 01fe 8C91      		ld r24,X
 432 0200 8160      		ori r24,lo8(1)
 433 0202 8C93      		st X,r24
 434               	.L41:
 435 0204 4F5F      		subi r20,lo8(-(1))
 436 0206 5F4F      		sbci r21,hi8(-(1))
 437 0208 1196      		adiw r26,1
 438               	.LM65:
 439 020a 4730      		cpi r20,7
 440 020c 5105      		cpc r21,__zero_reg__
 441 020e 01F4      		brne .L42
 442 0210 0895      		ret
 443               	.LFE10:
 445               	.global	clear_screen
 447               	clear_screen:
 448               	.LFB11:
 449               	.LM66:
 450               	/* prologue: function */
 451               	/* frame size = 0 */
 452               	.LM67:
 453 0212 E0E0      		ldi r30,lo8(screen_mem)
 454 0214 F0E0      		ldi r31,hi8(screen_mem)
 455               	.L47:
 456               	.LM68:
 457 0216 1192      		st Z+,__zero_reg__
 458               	.LM69:
 459 0218 80E0      		ldi r24,hi8(screen_mem+8)
 460 021a E030      		cpi r30,lo8(screen_mem+8)
 461 021c F807      		cpc r31,r24
 462 021e 01F4      		brne .L47
 463               	/* epilogue start */
 464               	.LM70:
 465 0220 0895      		ret
 466               	.LFE11:
 468               	.global	copy_to_buffer
 470               	copy_to_buffer:
 471               	.LFB12:
 472               	.LM71:
 473               	.LVL21:
 474               	/* prologue: function */
 475               	/* frame size = 0 */
 476 0222 BC01      		movw r22,r24
 477               	.LM72:
 478 0224 80E0      		ldi r24,lo8(buffer)
 479 0226 90E0      		ldi r25,hi8(buffer)
 480               	.LVL22:
 481 0228 48E0      		ldi r20,lo8(8)
 482 022a 50E0      		ldi r21,hi8(8)
 483 022c 00D0      		rcall memcpy_P
 484               	.LVL23:
 485               	/* epilogue start */
 486               	.LM73:
 487 022e 0895      		ret
 488               	.LFE12:
 490               	.global	main
 492               	main:
 493               	.LFB13:
 494               	.LM74:
 495 0230 1F93      		push r17
 496               	/* prologue: function */
 497               	/* frame size = 0 */
 498               	.LM75:
 499 0232 83B7      		in r24,83-32
 500 0234 8260      		ori r24,lo8(2)
 501 0236 83BF      		out 83-32,r24
 502               	.LM76:
 503 0238 89B7      		in r24,89-32
 504 023a 8260      		ori r24,lo8(2)
 505 023c 89BF      		out 89-32,r24
 506               	.LM77:
 507 023e 8AB3      		in r24,58-32
 508 0240 8360      		ori r24,lo8(3)
 509 0242 8ABB      		out 58-32,r24
 510               	.LM78:
 511 0244 87B3      		in r24,55-32
 512 0246 8FEF      		ldi r24,lo8(-1)
 513 0248 87BB      		out 55-32,r24
 514               	.LM79:
 515 024a 81B3      		in r24,49-32
 516 024c 8F63      		ori r24,lo8(63)
 517 024e 81BB      		out 49-32,r24
 518               	.LM80:
 519 0250 83E0      		ldi r24,lo8(3)
 520 0252 8BBB      		out 59-32,r24
 521               	.LM81:
 522 0254 86ED      		ldi r24,lo8(-42)
 523 0256 88BB      		out 56-32,r24
 524               	.LM82:
 525 0258 88E0      		ldi r24,lo8(8)
 526 025a 82BB      		out 50-32,r24
 527               	.LM83:
 528 025c 8E98      		cbi 49-32,6
 529               	.LM84:
 530 025e 9698      		cbi 50-32,6
 531 0260 20E0      		ldi r18,lo8(0)
 532               	.LVL24:
 533               	.LBB62:
 534               	.LBB63:
 535               	.LBB64:
 536               	.LBB65:
 537               	.LM85:
 538 0262 44E6      		ldi r20,lo8(100)
 539 0264 50E0      		ldi r21,hi8(100)
 540               	.LVL25:
 541               	.L55:
 542               	.LBE65:
 543               	.LBE64:
 544               	.LBE63:
 545               	.LBE62:
 546               	.LM86:
 547 0266 C49A      		sbi 56-32,4
 548 0268 88EE      		ldi r24,lo8(1000)
 549 026a 93E0      		ldi r25,hi8(1000)
 550               	.LVL26:
 551               	.L53:
 552               	.LBB69:
 553               	.LBB68:
 554               	.LBB67:
 555               	.LBB66:
 556               	.LM87:
 557 026c FA01      		movw r30,r20
 558               	.LVL27:
 559               	/* #APP */
 560               	 ;  105 "c:/winavr-20100110/lib/gcc/../../avr/include/util/delay_basic.h" 1
 561 026e 3197      		1: sbiw r30,1
 562 0270 01F4      		brne 1b
 563               	 ;  0 "" 2
 564               	/* #NOAPP */
 565               	.LBE66:
 566               	.LBE67:
 567               	.LM88:
 568 0272 0197      		sbiw r24,1
 569               	.LM89:
 570 0274 01F4      		brne .L53
 571               	.LBE68:
 572               	.LBE69:
 573               	.LM90:
 574 0276 C498      		cbi 56-32,4
 575 0278 88EE      		ldi r24,lo8(1000)
 576 027a 93E0      		ldi r25,hi8(1000)
 577               	.LVL28:
 578               	.L54:
 579               	.LBB70:
 580               	.LBB71:
 581               	.LBB72:
 582               	.LBB73:
 583               	.LM91:
 584 027c FA01      		movw r30,r20
 585               	.LVL29:
 586               	/* #APP */
 587               	 ;  105 "c:/winavr-20100110/lib/gcc/../../avr/include/util/delay_basic.h" 1
 588 027e 3197      		1: sbiw r30,1
 589 0280 01F4      		brne 1b
 590               	 ;  0 "" 2
 591               	/* #NOAPP */
 592               	.LBE73:
 593               	.LBE72:
 594               	.LM92:
 595 0282 0197      		sbiw r24,1
 596               	.LM93:
 597 0284 01F4      		brne .L54
 598               	.LBE71:
 599               	.LBE70:
 600               	.LM94:
 601 0286 2F5F      		subi r18,lo8(-(1))
 602 0288 2530      		cpi r18,lo8(5)
 603 028a 01F4      		brne .L55
 604               	.LM95:
 605 028c 80E0      		ldi r24,lo8(mode_ee)
 606 028e 90E0      		ldi r25,hi8(mode_ee)
 607               	.LVL30:
 608 0290 00D0      		rcall __eerd_byte_tn2313
 609               	.LVL31:
 610 0292 182F      		mov r17,r24
 611               	.LVL32:
 612               	.LM96:
 613 0294 8150      		subi r24,lo8(-(-1))
 614 0296 8330      		cpi r24,lo8(3)
 615 0298 00F0      		brlo .L56
 616 029a 11E0      		ldi r17,lo8(1)
 617               	.L56:
 618               	.LM97:
 619               	/* #APP */
 620               	 ;  431 "matrix.c" 1
 621 029c 7894      		sei
 622               	 ;  0 "" 2
 623               	/* #NOAPP */
 624               	.L93:
 625               	.LM98:
 626 029e 8699      		sbic 48-32,6
 627 02a0 00C0      		rjmp .L57
 628               	.LM99:
 629 02a2 1F5F      		subi r17,lo8(-(1))
 630               	.LBB74:
 631               	.LBB75:
 632               	.LM100:
 633 02a4 1092 0000 		sts (counter)+1,__zero_reg__
 634 02a8 1092 0000 		sts counter,__zero_reg__
 635               	.L58:
 636               	.LM101:
 637 02ac 8091 0000 		lds r24,counter
 638 02b0 9091 0000 		lds r25,(counter)+1
 639 02b4 883C      		cpi r24,200
 640 02b6 9105      		cpc r25,__zero_reg__
 641 02b8 00F0      		brlo .L58
 642               	.LBE75:
 643               	.LBE74:
 644               	.LM102:
 645 02ba 80E0      		ldi r24,lo8(mode_ee)
 646 02bc 90E0      		ldi r25,hi8(mode_ee)
 647 02be 612F      		mov r22,r17
 648 02c0 00D0      		rcall __eewr_byte_tn2313
 649               	.L57:
 650               	.LM103:
 651 02c2 1330      		cpi r17,lo8(3)
 652 02c4 01F4      		brne .+2
 653 02c6 00C0      		rjmp .L62
 654 02c8 1430      		cpi r17,lo8(4)
 655 02ca 00F4      		brsh .L66
 656 02cc 1130      		cpi r17,lo8(1)
 657 02ce 01F0      		breq .L60
 658 02d0 1230      		cpi r17,lo8(2)
 659 02d2 01F4      		brne .L59
 660 02d4 00C0      		rjmp .L94
 661               	.L66:
 662 02d6 1530      		cpi r17,lo8(5)
 663 02d8 01F4      		brne .+2
 664 02da 00C0      		rjmp .L64
 665 02dc 1530      		cpi r17,lo8(5)
 666 02de 00F4      		brsh .+2
 667 02e0 00C0      		rjmp .L63
 668 02e2 1630      		cpi r17,lo8(6)
 669 02e4 01F4      		brne .+2
 670 02e6 00C0      		rjmp .L65
 671               	.L59:
 672 02e8 11E0      		ldi r17,lo8(1)
 673 02ea 00C0      		rjmp .L93
 674               	.L60:
 675               	.LBB76:
 676               	.LBB77:
 677               	.LM104:
 678 02ec 80E0      		ldi r24,lo8(buffer)
 679 02ee 90E0      		ldi r25,hi8(buffer)
 680 02f0 60E0      		ldi r22,lo8(sprite_00)
 681 02f2 70E0      		ldi r23,hi8(sprite_00)
 682 02f4 48E0      		ldi r20,lo8(8)
 683 02f6 50E0      		ldi r21,hi8(8)
 684 02f8 00D0      		rcall memcpy_P
 685               	.LBE77:
 686               	.LBE76:
 687               	.LM105:
 688 02fa 80E0      		ldi r24,lo8(0)
 689 02fc 60E0      		ldi r22,lo8(0)
 690 02fe 40E0      		ldi r20,lo8(buffer)
 691 0300 50E0      		ldi r21,hi8(buffer)
 692 0302 00D0      		rcall copy_to_display
 693               	.LBB78:
 694               	.LBB79:
 695               	.LM106:
 696 0304 1092 0000 		sts (counter)+1,__zero_reg__
 697 0308 1092 0000 		sts counter,__zero_reg__
 698               	.L68:
 699               	.LM107:
 700 030c 8091 0000 		lds r24,counter
 701 0310 9091 0000 		lds r25,(counter)+1
 702 0314 8C5D      		subi r24,lo8(1500)
 703 0316 9540      		sbci r25,hi8(1500)
 704 0318 00F0      		brlo .L68
 705               	.LBE79:
 706               	.LBE78:
 707               	.LBB80:
 708               	.LBB81:
 709               	.LM108:
 710 031a 80E0      		ldi r24,lo8(buffer)
 711 031c 90E0      		ldi r25,hi8(buffer)
 712 031e 60E0      		ldi r22,lo8(sprite_01)
 713 0320 70E0      		ldi r23,hi8(sprite_01)
 714 0322 48E0      		ldi r20,lo8(8)
 715 0324 50E0      		ldi r21,hi8(8)
 716 0326 00D0      		rcall memcpy_P
 717               	.LBE81:
 718               	.LBE80:
 719               	.LM109:
 720 0328 80E0      		ldi r24,lo8(0)
 721 032a 60E0      		ldi r22,lo8(0)
 722 032c 40E0      		ldi r20,lo8(buffer)
 723 032e 50E0      		ldi r21,hi8(buffer)
 724 0330 00D0      		rcall copy_to_display
 725               	.LBB82:
 726               	.LBB83:
 727               	.LM110:
 728 0332 1092 0000 		sts (counter)+1,__zero_reg__
 729 0336 1092 0000 		sts counter,__zero_reg__
 730               	.L69:
 731               	.LM111:
 732 033a 8091 0000 		lds r24,counter
 733 033e 9091 0000 		lds r25,(counter)+1
 734 0342 8C5D      		subi r24,lo8(1500)
 735 0344 9540      		sbci r25,hi8(1500)
 736 0346 00F0      		brlo .L69
 737 0348 00C0      		rjmp .L93
 738               	.L94:
 739               	.LBE83:
 740               	.LBE82:
 741               	.LBB84:
 742               	.LBB85:
 743               	.LM112:
 744 034a 80E0      		ldi r24,lo8(buffer)
 745 034c 90E0      		ldi r25,hi8(buffer)
 746 034e 60E0      		ldi r22,lo8(sprite_03)
 747 0350 70E0      		ldi r23,hi8(sprite_03)
 748 0352 48E0      		ldi r20,lo8(8)
 749 0354 50E0      		ldi r21,hi8(8)
 750 0356 00D0      		rcall memcpy_P
 751               	.LBE85:
 752               	.LBE84:
 753               	.LM113:
 754 0358 80E0      		ldi r24,lo8(0)
 755 035a 60E0      		ldi r22,lo8(0)
 756 035c 40E0      		ldi r20,lo8(buffer)
 757 035e 50E0      		ldi r21,hi8(buffer)
 758 0360 00D0      		rcall copy_to_display
 759               	.LBB86:
 760               	.LBB87:
 761               	.LM114:
 762 0362 1092 0000 		sts (counter)+1,__zero_reg__
 763 0366 1092 0000 		sts counter,__zero_reg__
 764               	.L70:
 765               	.LM115:
 766 036a 8091 0000 		lds r24,counter
 767 036e 9091 0000 		lds r25,(counter)+1
 768 0372 8C5D      		subi r24,lo8(1500)
 769 0374 9540      		sbci r25,hi8(1500)
 770 0376 00F0      		brlo .L70
 771               	.LBE87:
 772               	.LBE86:
 773               	.LBB88:
 774               	.LBB89:
 775               	.LM116:
 776 0378 80E0      		ldi r24,lo8(buffer)
 777 037a 90E0      		ldi r25,hi8(buffer)
 778 037c 60E0      		ldi r22,lo8(sprite_02)
 779 037e 70E0      		ldi r23,hi8(sprite_02)
 780 0380 48E0      		ldi r20,lo8(8)
 781 0382 50E0      		ldi r21,hi8(8)
 782 0384 00D0      		rcall memcpy_P
 783               	.LBE89:
 784               	.LBE88:
 785               	.LM117:
 786 0386 80E0      		ldi r24,lo8(0)
 787 0388 60E0      		ldi r22,lo8(0)
 788 038a 40E0      		ldi r20,lo8(buffer)
 789 038c 50E0      		ldi r21,hi8(buffer)
 790 038e 00D0      		rcall copy_to_display
 791               	.LBB90:
 792               	.LBB91:
 793               	.LM118:
 794 0390 1092 0000 		sts (counter)+1,__zero_reg__
 795 0394 1092 0000 		sts counter,__zero_reg__
 796               	.L71:
 797               	.LM119:
 798 0398 8091 0000 		lds r24,counter
 799 039c 9091 0000 		lds r25,(counter)+1
 800 03a0 8856      		subi r24,lo8(360)
 801 03a2 9140      		sbci r25,hi8(360)
 802 03a4 00F0      		brlo .L71
 803 03a6 00C0      		rjmp .L93
 804               	.L62:
 805               	.LBE91:
 806               	.LBE90:
 807               	.LBB92:
 808               	.LBB93:
 809               	.LM120:
 810 03a8 80E0      		ldi r24,lo8(buffer)
 811 03aa 90E0      		ldi r25,hi8(buffer)
 812 03ac 60E0      		ldi r22,lo8(sprite_04)
 813 03ae 70E0      		ldi r23,hi8(sprite_04)
 814 03b0 48E0      		ldi r20,lo8(8)
 815 03b2 50E0      		ldi r21,hi8(8)
 816 03b4 00D0      		rcall memcpy_P
 817               	.LBE93:
 818               	.LBE92:
 819               	.LM121:
 820 03b6 80E0      		ldi r24,lo8(0)
 821 03b8 60E0      		ldi r22,lo8(0)
 822 03ba 40E0      		ldi r20,lo8(buffer)
 823 03bc 50E0      		ldi r21,hi8(buffer)
 824 03be 00D0      		rcall copy_to_display
 825               	.LBB94:
 826               	.LBB95:
 827               	.LM122:
 828 03c0 1092 0000 		sts (counter)+1,__zero_reg__
 829 03c4 1092 0000 		sts counter,__zero_reg__
 830               	.L72:
 831               	.LM123:
 832 03c8 8091 0000 		lds r24,counter
 833 03cc 9091 0000 		lds r25,(counter)+1
 834 03d0 8C5D      		subi r24,lo8(1500)
 835 03d2 9540      		sbci r25,hi8(1500)
 836 03d4 00F0      		brlo .L72
 837               	.LBE95:
 838               	.LBE94:
 839               	.LBB96:
 840               	.LBB97:
 841               	.LM124:
 842 03d6 80E0      		ldi r24,lo8(buffer)
 843 03d8 90E0      		ldi r25,hi8(buffer)
 844 03da 60E0      		ldi r22,lo8(sprite_05)
 845 03dc 70E0      		ldi r23,hi8(sprite_05)
 846 03de 48E0      		ldi r20,lo8(8)
 847 03e0 50E0      		ldi r21,hi8(8)
 848 03e2 00D0      		rcall memcpy_P
 849               	.LBE97:
 850               	.LBE96:
 851               	.LM125:
 852 03e4 80E0      		ldi r24,lo8(0)
 853 03e6 60E0      		ldi r22,lo8(0)
 854 03e8 40E0      		ldi r20,lo8(buffer)
 855 03ea 50E0      		ldi r21,hi8(buffer)
 856 03ec 00D0      		rcall copy_to_display
 857               	.LBB98:
 858               	.LBB99:
 859               	.LM126:
 860 03ee 1092 0000 		sts (counter)+1,__zero_reg__
 861 03f2 1092 0000 		sts counter,__zero_reg__
 862               	.L73:
 863               	.LM127:
 864 03f6 8091 0000 		lds r24,counter
 865 03fa 9091 0000 		lds r25,(counter)+1
 866 03fe 8C5D      		subi r24,lo8(1500)
 867 0400 9540      		sbci r25,hi8(1500)
 868 0402 00F0      		brlo .L73
 869 0404 00C0      		rjmp .L93
 870               	.L63:
 871               	.LBE99:
 872               	.LBE98:
 873               	.LBB100:
 874               	.LBB101:
 875               	.LM128:
 876 0406 80E0      		ldi r24,lo8(buffer)
 877 0408 90E0      		ldi r25,hi8(buffer)
 878 040a 60E0      		ldi r22,lo8(whaa1)
 879 040c 70E0      		ldi r23,hi8(whaa1)
 880 040e 48E0      		ldi r20,lo8(8)
 881 0410 50E0      		ldi r21,hi8(8)
 882 0412 00D0      		rcall memcpy_P
 883               	.LBE101:
 884               	.LBE100:
 885               	.LM129:
 886 0414 80E0      		ldi r24,lo8(0)
 887 0416 60E0      		ldi r22,lo8(0)
 888 0418 40E0      		ldi r20,lo8(buffer)
 889 041a 50E0      		ldi r21,hi8(buffer)
 890 041c 00D0      		rcall copy_to_display
 891               	.LBB102:
 892               	.LBB103:
 893               	.LM130:
 894 041e 1092 0000 		sts (counter)+1,__zero_reg__
 895 0422 1092 0000 		sts counter,__zero_reg__
 896               	.L74:
 897               	.LM131:
 898 0426 8091 0000 		lds r24,counter
 899 042a 9091 0000 		lds r25,(counter)+1
 900 042e 8C5D      		subi r24,lo8(1500)
 901 0430 9540      		sbci r25,hi8(1500)
 902 0432 00F0      		brlo .L74
 903               	.LBE103:
 904               	.LBE102:
 905               	.LBB104:
 906               	.LBB105:
 907               	.LM132:
 908 0434 80E0      		ldi r24,lo8(buffer)
 909 0436 90E0      		ldi r25,hi8(buffer)
 910 0438 60E0      		ldi r22,lo8(whaa2)
 911 043a 70E0      		ldi r23,hi8(whaa2)
 912 043c 48E0      		ldi r20,lo8(8)
 913 043e 50E0      		ldi r21,hi8(8)
 914 0440 00D0      		rcall memcpy_P
 915               	.LBE105:
 916               	.LBE104:
 917               	.LM133:
 918 0442 80E0      		ldi r24,lo8(0)
 919 0444 60E0      		ldi r22,lo8(0)
 920 0446 40E0      		ldi r20,lo8(buffer)
 921 0448 50E0      		ldi r21,hi8(buffer)
 922 044a 00D0      		rcall copy_to_display
 923               	.LBB106:
 924               	.LBB107:
 925               	.LM134:
 926 044c 1092 0000 		sts (counter)+1,__zero_reg__
 927 0450 1092 0000 		sts counter,__zero_reg__
 928               	.L75:
 929               	.LM135:
 930 0454 8091 0000 		lds r24,counter
 931 0458 9091 0000 		lds r25,(counter)+1
 932 045c 8C5D      		subi r24,lo8(1500)
 933 045e 9540      		sbci r25,hi8(1500)
 934 0460 00F0      		brlo .L75
 935 0462 00C0      		rjmp .L93
 936               	.L64:
 937               	.LBE107:
 938               	.LBE106:
 939               	.LBB108:
 940               	.LBB109:
 941               	.LM136:
 942 0464 80E0      		ldi r24,lo8(buffer)
 943 0466 90E0      		ldi r25,hi8(buffer)
 944 0468 60E0      		ldi r22,lo8(smiley)
 945 046a 70E0      		ldi r23,hi8(smiley)
 946 046c 48E0      		ldi r20,lo8(8)
 947 046e 50E0      		ldi r21,hi8(8)
 948 0470 00D0      		rcall memcpy_P
 949               	.LBE109:
 950               	.LBE108:
 951               	.LM137:
 952 0472 80E0      		ldi r24,lo8(0)
 953 0474 60E0      		ldi r22,lo8(0)
 954 0476 40E0      		ldi r20,lo8(buffer)
 955 0478 50E0      		ldi r21,hi8(buffer)
 956 047a 00D0      		rcall copy_to_display
 957               	.LBB110:
 958               	.LBB111:
 959               	.LM138:
 960 047c 1092 0000 		sts (counter)+1,__zero_reg__
 961 0480 1092 0000 		sts counter,__zero_reg__
 962               	.L76:
 963               	.LM139:
 964 0484 8091 0000 		lds r24,counter
 965 0488 9091 0000 		lds r25,(counter)+1
 966 048c 885E      		subi r24,lo8(1000)
 967 048e 9340      		sbci r25,hi8(1000)
 968 0490 00F0      		brlo .L76
 969 0492 00C0      		rjmp .L93
 970               	.L65:
 971               	.LBE111:
 972               	.LBE110:
 973               	.LBB112:
 974               	.LBB113:
 975               	.LM140:
 976 0494 80E0      		ldi r24,lo8(buffer)
 977 0496 90E0      		ldi r25,hi8(buffer)
 978 0498 60E0      		ldi r22,lo8(sqsmiley)
 979 049a 70E0      		ldi r23,hi8(sqsmiley)
 980 049c 48E0      		ldi r20,lo8(8)
 981 049e 50E0      		ldi r21,hi8(8)
 982 04a0 00D0      		rcall memcpy_P
 983               	.LBE113:
 984               	.LBE112:
 985               	.LM141:
 986 04a2 80E0      		ldi r24,lo8(0)
 987 04a4 60E0      		ldi r22,lo8(0)
 988 04a6 40E0      		ldi r20,lo8(buffer)
 989 04a8 50E0      		ldi r21,hi8(buffer)
 990 04aa 00D0      		rcall copy_to_display
 991               	.LBB114:
 992               	.LBB115:
 993               	.LM142:
 994 04ac 1092 0000 		sts (counter)+1,__zero_reg__
 995 04b0 1092 0000 		sts counter,__zero_reg__
 996               	.L77:
 997               	.LM143:
 998 04b4 8091 0000 		lds r24,counter
 999 04b8 9091 0000 		lds r25,(counter)+1
 1000 04bc 885E      		subi r24,lo8(1000)
 1001 04be 9340      		sbci r25,hi8(1000)
 1002 04c0 00F0      		brlo .L77
 1003 04c2 00C0      		rjmp .L93
 1004               	.LBE115:
 1005               	.LBE114:
 1006               	.LFE13:
 1008               	.global	font
 1009               		.section	.progmem.data,"a",@progbits
 1012               	font:
 1013 0000 00        		.byte	0
 1014 0001 00        		.byte	0
 1015 0002 00        		.byte	0
 1016 0003 01        		.byte	1
 1017 0004 17        		.byte	23
 1018 0005 00        		.byte	0
 1019 0006 00        		.byte	0
 1020 0007 01        		.byte	1
 1021 0008 03        		.byte	3
 1022 0009 00        		.byte	0
 1023 000a 03        		.byte	3
 1024 000b 03        		.byte	3
 1025 000c 00        		.byte	0
 1026 000d 00        		.byte	0
 1027 000e 00        		.byte	0
 1028 000f 03        		.byte	3
 1029 0010 00        		.byte	0
 1030 0011 00        		.byte	0
 1031 0012 00        		.byte	0
 1032 0013 03        		.byte	3
 1033 0014 00        		.byte	0
 1034 0015 00        		.byte	0
 1035 0016 00        		.byte	0
 1036 0017 03        		.byte	3
 1037 0018 00        		.byte	0
 1038 0019 00        		.byte	0
 1039 001a 00        		.byte	0
 1040 001b 03        		.byte	3
 1041 001c 03        		.byte	3
 1042 001d 00        		.byte	0
 1043 001e 00        		.byte	0
 1044 001f 01        		.byte	1
 1045 0020 0E        		.byte	14
 1046 0021 11        		.byte	17
 1047 0022 00        		.byte	0
 1048 0023 02        		.byte	2
 1049 0024 11        		.byte	17
 1050 0025 0E        		.byte	14
 1051 0026 00        		.byte	0
 1052 0027 02        		.byte	2
 1053 0028 00        		.byte	0
 1054 0029 00        		.byte	0
 1055 002a 00        		.byte	0
 1056 002b 03        		.byte	3
 1057 002c 08        		.byte	8
 1058 002d 1C        		.byte	28
 1059 002e 08        		.byte	8
 1060 002f 03        		.byte	3
 1061 0030 18        		.byte	24
 1062 0031 00        		.byte	0
 1063 0032 00        		.byte	0
 1064 0033 01        		.byte	1
 1065 0034 04        		.byte	4
 1066 0035 04        		.byte	4
 1067 0036 00        		.byte	0
 1068 0037 03        		.byte	3
 1069 0038 10        		.byte	16
 1070 0039 00        		.byte	0
 1071 003a 00        		.byte	0
 1072 003b 01        		.byte	1
 1073 003c 18        		.byte	24
 1074 003d 04        		.byte	4
 1075 003e 03        		.byte	3
 1076 003f 03        		.byte	3
 1077 0040 1F        		.byte	31
 1078 0041 11        		.byte	17
 1079 0042 1F        		.byte	31
 1080 0043 03        		.byte	3
 1081 0044 01        		.byte	1
 1082 0045 1F        		.byte	31
 1083 0046 00        		.byte	0
 1084 0047 02        		.byte	2
 1085 0048 1D        		.byte	29
 1086 0049 15        		.byte	21
 1087 004a 17        		.byte	23
 1088 004b 03        		.byte	3
 1089 004c 15        		.byte	21
 1090 004d 15        		.byte	21
 1091 004e 0E        		.byte	14
 1092 004f 03        		.byte	3
 1093 0050 0F        		.byte	15
 1094 0051 08        		.byte	8
 1095 0052 1F        		.byte	31
 1096 0053 03        		.byte	3
 1097 0054 17        		.byte	23
 1098 0055 15        		.byte	21
 1099 0056 1D        		.byte	29
 1100 0057 03        		.byte	3
 1101 0058 1F        		.byte	31
 1102 0059 12        		.byte	18
 1103 005a 1E        		.byte	30
 1104 005b 03        		.byte	3
 1105 005c 11        		.byte	17
 1106 005d 09        		.byte	9
 1107 005e 07        		.byte	7
 1108 005f 03        		.byte	3
 1109 0060 1F        		.byte	31
 1110 0061 15        		.byte	21
 1111 0062 1F        		.byte	31
 1112 0063 03        		.byte	3
 1113 0064 0F        		.byte	15
 1114 0065 09        		.byte	9
 1115 0066 1F        		.byte	31
 1116 0067 03        		.byte	3
 1117 0068 0A        		.byte	10
 1118 0069 00        		.byte	0
 1119 006a 00        		.byte	0
 1120 006b 01        		.byte	1
 1121 006c 1A        		.byte	26
 1122 006d 00        		.byte	0
 1123 006e 00        		.byte	0
 1124 006f 01        		.byte	1
 1125 0070 08        		.byte	8
 1126 0071 14        		.byte	20
 1127 0072 00        		.byte	0
 1128 0073 02        		.byte	2
 1129 0074 14        		.byte	20
 1130 0075 14        		.byte	20
 1131 0076 00        		.byte	0
 1132 0077 02        		.byte	2
 1133 0078 14        		.byte	20
 1134 0079 08        		.byte	8
 1135 007a 00        		.byte	0
 1136 007b 02        		.byte	2
 1137 007c 15        		.byte	21
 1138 007d 05        		.byte	5
 1139 007e 02        		.byte	2
 1140 007f 03        		.byte	3
 1141 0080 0E        		.byte	14
 1142 0081 17        		.byte	23
 1143 0082 16        		.byte	22
 1144 0083 03        		.byte	3
 1145 0084 1F        		.byte	31
 1146 0085 09        		.byte	9
 1147 0086 1E        		.byte	30
 1148 0087 03        		.byte	3
 1149 0088 1F        		.byte	31
 1150 0089 15        		.byte	21
 1151 008a 0A        		.byte	10
 1152 008b 03        		.byte	3
 1153 008c 0E        		.byte	14
 1154 008d 11        		.byte	17
 1155 008e 11        		.byte	17
 1156 008f 03        		.byte	3
 1157 0090 1F        		.byte	31
 1158 0091 11        		.byte	17
 1159 0092 0E        		.byte	14
 1160 0093 03        		.byte	3
 1161 0094 0E        		.byte	14
 1162 0095 15        		.byte	21
 1163 0096 15        		.byte	21
 1164 0097 03        		.byte	3
 1165 0098 1E        		.byte	30
 1166 0099 05        		.byte	5
 1167 009a 05        		.byte	5
 1168 009b 03        		.byte	3
 1169 009c 0E        		.byte	14
 1170 009d 11        		.byte	17
 1171 009e 1D        		.byte	29
 1172 009f 03        		.byte	3
 1173 00a0 1F        		.byte	31
 1174 00a1 04        		.byte	4
 1175 00a2 1F        		.byte	31
 1176 00a3 03        		.byte	3
 1177 00a4 1F        		.byte	31
 1178 00a5 00        		.byte	0
 1179 00a6 00        		.byte	0
 1180 00a7 01        		.byte	1
 1181 00a8 08        		.byte	8
 1182 00a9 10        		.byte	16
 1183 00aa 0F        		.byte	15
 1184 00ab 03        		.byte	3
 1185 00ac 1F        		.byte	31
 1186 00ad 04        		.byte	4
 1187 00ae 1B        		.byte	27
 1188 00af 03        		.byte	3
 1189 00b0 0F        		.byte	15
 1190 00b1 10        		.byte	16
 1191 00b2 10        		.byte	16
 1192 00b3 03        		.byte	3
 1193 00b4 1F        		.byte	31
 1194 00b5 02        		.byte	2
 1195 00b6 1F        		.byte	31
 1196 00b7 03        		.byte	3
 1197 00b8 1F        		.byte	31
 1198 00b9 01        		.byte	1
 1199 00ba 1E        		.byte	30
 1200 00bb 03        		.byte	3
 1201 00bc 0E        		.byte	14
 1202 00bd 11        		.byte	17
 1203 00be 0E        		.byte	14
 1204 00bf 03        		.byte	3
 1205 00c0 1F        		.byte	31
 1206 00c1 09        		.byte	9
 1207 00c2 06        		.byte	6
 1208 00c3 03        		.byte	3
 1209 00c4 06        		.byte	6
 1210 00c5 19        		.byte	25
 1211 00c6 06        		.byte	6
 1212 00c7 03        		.byte	3
 1213 00c8 1F        		.byte	31
 1214 00c9 09        		.byte	9
 1215 00ca 16        		.byte	22
 1216 00cb 03        		.byte	3
 1217 00cc 12        		.byte	18
 1218 00cd 15        		.byte	21
 1219 00ce 09        		.byte	9
 1220 00cf 03        		.byte	3
 1221 00d0 01        		.byte	1
 1222 00d1 1F        		.byte	31
 1223 00d2 01        		.byte	1
 1224 00d3 03        		.byte	3
 1225 00d4 0F        		.byte	15
 1226 00d5 10        		.byte	16
 1227 00d6 0F        		.byte	15
 1228 00d7 03        		.byte	3
 1229 00d8 1F        		.byte	31
 1230 00d9 10        		.byte	16
 1231 00da 0F        		.byte	15
 1232 00db 03        		.byte	3
 1233 00dc 1F        		.byte	31
 1234 00dd 08        		.byte	8
 1235 00de 1F        		.byte	31
 1236 00df 03        		.byte	3
 1237 00e0 1B        		.byte	27
 1238 00e1 04        		.byte	4
 1239 00e2 1B        		.byte	27
 1240 00e3 03        		.byte	3
 1241 00e4 03        		.byte	3
 1242 00e5 1C        		.byte	28
 1243 00e6 03        		.byte	3
 1244 00e7 03        		.byte	3
 1245 00e8 19        		.byte	25
 1246 00e9 15        		.byte	21
 1247 00ea 13        		.byte	19
 1248 00eb 03        		.byte	3
 1249 00ec 1F        		.byte	31
 1250 00ed 11        		.byte	17
 1251 00ee 00        		.byte	0
 1252 00ef 02        		.byte	2
 1253 00f0 03        		.byte	3
 1254 00f1 04        		.byte	4
 1255 00f2 18        		.byte	24
 1256 00f3 03        		.byte	3
 1257 00f4 11        		.byte	17
 1258 00f5 1F        		.byte	31
 1259 00f6 00        		.byte	0
 1260 00f7 02        		.byte	2
 1261 00f8 11        		.byte	17
 1262 00f9 1F        		.byte	31
 1263 00fa 00        		.byte	0
 1264 00fb 02        		.byte	2
 1265 00fc 1F        		.byte	31
 1266 00fd 1F        		.byte	31
 1267 00fe 1F        		.byte	31
 1268 00ff 03        		.byte	3
 1269               	.global	sprite_00
 1272               	sprite_00:
 1273 0100 18        		.byte	24
 1274 0101 3C        		.byte	60
 1275 0102 7E        		.byte	126
 1276 0103 DB        		.byte	-37
 1277 0104 FF        		.byte	-1
 1278 0105 24        		.byte	36
 1279 0106 5A        		.byte	90
 1280 0107 A5        		.byte	-91
 1281               	.global	sprite_01
 1284               	sprite_01:
 1285 0108 18        		.byte	24
 1286 0109 3C        		.byte	60
 1287 010a 7E        		.byte	126
 1288 010b DB        		.byte	-37
 1289 010c FF        		.byte	-1
 1290 010d 24        		.byte	36
 1291 010e 42        		.byte	66
 1292 010f 24        		.byte	36
 1293               	.global	sprite_02
 1296               	sprite_02:
 1297 0110 00        		.byte	0
 1298 0111 00        		.byte	0
 1299 0112 14        		.byte	20
 1300 0113 3E        		.byte	62
 1301 0114 3E        		.byte	62
 1302 0115 1C        		.byte	28
 1303 0116 08        		.byte	8
 1304 0117 00        		.byte	0
 1305               	.global	sprite_03
 1308               	sprite_03:
 1309 0118 00        		.byte	0
 1310 0119 66        		.byte	102
 1311 011a FF        		.byte	-1
 1312 011b FF        		.byte	-1
 1313 011c FF        		.byte	-1
 1314 011d 7E        		.byte	126
 1315 011e 3C        		.byte	60
 1316 011f 18        		.byte	24
 1317               	.global	sprite_04
 1320               	sprite_04:
 1321 0120 24        		.byte	36
 1322 0121 7E        		.byte	126
 1323 0122 DB        		.byte	-37
 1324 0123 FF        		.byte	-1
 1325 0124 A5        		.byte	-91
 1326 0125 99        		.byte	-103
 1327 0126 81        		.byte	-127
 1328 0127 C3        		.byte	-61
 1329               	.global	sprite_05
 1332               	sprite_05:
 1333 0128 24        		.byte	36
 1334 0129 18        		.byte	24
 1335 012a 7E        		.byte	126
 1336 012b DB        		.byte	-37
 1337 012c FF        		.byte	-1
 1338 012d DB        		.byte	-37
 1339 012e 99        		.byte	-103
 1340 012f C3        		.byte	-61
 1341               	.global	whaa1
 1344               	whaa1:
 1345 0130 3C        		.byte	60
 1346 0131 42        		.byte	66
 1347 0132 81        		.byte	-127
 1348 0133 A5        		.byte	-91
 1349 0134 81        		.byte	-127
 1350 0135 99        		.byte	-103
 1351 0136 81        		.byte	-127
 1352 0137 FF        		.byte	-1
 1353               	.global	whaa2
 1356               	whaa2:
 1357 0138 3C        		.byte	60
 1358 0139 42        		.byte	66
 1359 013a A5        		.byte	-91
 1360 013b 81        		.byte	-127
 1361 013c 81        		.byte	-127
 1362 013d 99        		.byte	-103
 1363 013e 81        		.byte	-127
 1364 013f FF        		.byte	-1
 1365               	.global	smiley
 1368               	smiley:
 1369 0140 3C        		.byte	60
 1370 0141 42        		.byte	66
 1371 0142 A9        		.byte	-87
 1372 0143 A9        		.byte	-87
 1373 0144 85        		.byte	-123
 1374 0145 B9        		.byte	-71
 1375 0146 42        		.byte	66
 1376 0147 3C        		.byte	60
 1377               	.global	sqsmiley
 1380               	sqsmiley:
 1381 0148 3C        		.byte	60
 1382 0149 42        		.byte	66
 1383 014a A9        		.byte	-87
 1384 014b A9        		.byte	-87
 1385 014c 85        		.byte	-123
 1386 014d B9        		.byte	-71
 1387 014e 42        		.byte	66
 1388 014f 3C        		.byte	60
 1389               	.global	mode_ee
 1390               		.section	.eeprom,"aw",@progbits
 1393               	mode_ee:
 1394 0000 01        		.byte	1
 1395               		.lcomm char_ptr,1
 1396               		.lcomm char_length,1
 1397               		.lcomm message_ptr,1
 1398               		.lcomm message_displayed,1
 1399               		.lcomm active_char,1
 1400               		.lcomm counter,2
 1401               		.lcomm screen_mem,8
 1402               		.lcomm active_row,1
 1403               		.lcomm buffer,60
 1484               	.Letext0:
DEFINED SYMBOLS
                            *ABS*:00000000 matrix.c
C:\Users\HEMALM~1.CHE\AppData\Local\Temp/ccz45Hau.s:2      *ABS*:0000003f __SREG__
C:\Users\HEMALM~1.CHE\AppData\Local\Temp/ccz45Hau.s:3      *ABS*:0000003e __SP_H__
C:\Users\HEMALM~1.CHE\AppData\Local\Temp/ccz45Hau.s:4      *ABS*:0000003d __SP_L__
C:\Users\HEMALM~1.CHE\AppData\Local\Temp/ccz45Hau.s:5      *ABS*:00000034 __CCP__
C:\Users\HEMALM~1.CHE\AppData\Local\Temp/ccz45Hau.s:6      *ABS*:00000000 __tmp_reg__
C:\Users\HEMALM~1.CHE\AppData\Local\Temp/ccz45Hau.s:7      *ABS*:00000001 __zero_reg__
C:\Users\HEMALM~1.CHE\AppData\Local\Temp/ccz45Hau.s:18     .text:00000000 delay_ms
C:\Users\HEMALM~1.CHE\AppData\Local\Temp/ccz45Hau.s:1399   .bss:00000005 counter
C:\Users\HEMALM~1.CHE\AppData\Local\Temp/ccz45Hau.s:47     .text:0000001e copy_to_display
C:\Users\HEMALM~1.CHE\AppData\Local\Temp/ccz45Hau.s:1400   .bss:00000007 screen_mem
C:\Users\HEMALM~1.CHE\AppData\Local\Temp/ccz45Hau.s:135    .text:00000088 display_active_row
C:\Users\HEMALM~1.CHE\AppData\Local\Temp/ccz45Hau.s:1401   .bss:0000000f active_row
C:\Users\HEMALM~1.CHE\AppData\Local\Temp/ccz45Hau.s:265    .text:000000fc __vector_6
C:\Users\HEMALM~1.CHE\AppData\Local\Temp/ccz45Hau.s:318    .text:00000154 show_char
                             .bss:00000000 char_ptr
C:\Users\HEMALM~1.CHE\AppData\Local\Temp/ccz45Hau.s:1395   .bss:00000001 char_length
C:\Users\HEMALM~1.CHE\AppData\Local\Temp/ccz45Hau.s:1396   .bss:00000002 message_ptr
C:\Users\HEMALM~1.CHE\AppData\Local\Temp/ccz45Hau.s:1397   .bss:00000003 message_displayed
C:\Users\HEMALM~1.CHE\AppData\Local\Temp/ccz45Hau.s:1402   .bss:00000010 buffer
C:\Users\HEMALM~1.CHE\AppData\Local\Temp/ccz45Hau.s:1398   .bss:00000004 active_char
C:\Users\HEMALM~1.CHE\AppData\Local\Temp/ccz45Hau.s:1012   .progmem.data:00000000 font
C:\Users\HEMALM~1.CHE\AppData\Local\Temp/ccz45Hau.s:447    .text:00000212 clear_screen
C:\Users\HEMALM~1.CHE\AppData\Local\Temp/ccz45Hau.s:470    .text:00000222 copy_to_buffer
C:\Users\HEMALM~1.CHE\AppData\Local\Temp/ccz45Hau.s:492    .text:00000230 main
C:\Users\HEMALM~1.CHE\AppData\Local\Temp/ccz45Hau.s:1393   .eeprom:00000000 mode_ee
C:\Users\HEMALM~1.CHE\AppData\Local\Temp/ccz45Hau.s:1272   .progmem.data:00000100 sprite_00
C:\Users\HEMALM~1.CHE\AppData\Local\Temp/ccz45Hau.s:1284   .progmem.data:00000108 sprite_01
C:\Users\HEMALM~1.CHE\AppData\Local\Temp/ccz45Hau.s:1308   .progmem.data:00000118 sprite_03
C:\Users\HEMALM~1.CHE\AppData\Local\Temp/ccz45Hau.s:1296   .progmem.data:00000110 sprite_02
C:\Users\HEMALM~1.CHE\AppData\Local\Temp/ccz45Hau.s:1320   .progmem.data:00000120 sprite_04
C:\Users\HEMALM~1.CHE\AppData\Local\Temp/ccz45Hau.s:1332   .progmem.data:00000128 sprite_05
C:\Users\HEMALM~1.CHE\AppData\Local\Temp/ccz45Hau.s:1344   .progmem.data:00000130 whaa1
C:\Users\HEMALM~1.CHE\AppData\Local\Temp/ccz45Hau.s:1356   .progmem.data:00000138 whaa2
C:\Users\HEMALM~1.CHE\AppData\Local\Temp/ccz45Hau.s:1368   .progmem.data:00000140 smiley
C:\Users\HEMALM~1.CHE\AppData\Local\Temp/ccz45Hau.s:1380   .progmem.data:00000148 sqsmiley

UNDEFINED SYMBOLS
memcpy_P
__eerd_byte_tn2313
__eewr_byte_tn2313
__do_copy_data
__do_clear_bss
