M48
;DRILL file {KiCad (2015-06-30 BZR 5847, Git 785638a)-product} date 10/28/15 17:10:47
;FORMAT={-:-/ absolute / inch / decimal}
FMAT,2
INCH,TZ
T1C0.030
T2C0.039
T3C0.040
%
G90
G05
M72
T1
X3.4744Y-5.8661
X3.5476Y-5.4161
X3.5476Y-6.3161
X3.6476Y-5.4161
X3.6476Y-6.3161
X3.7476Y-5.4161
X3.7476Y-6.3161
X3.8476Y-5.4161
X3.8476Y-6.3161
X3.9476Y-5.4161
X3.9476Y-6.3161
X4.0476Y-5.4161
X4.0476Y-6.3161
X4.1476Y-5.4161
X4.1476Y-6.3161
X4.2476Y-5.4161
X4.2476Y-6.3161
X4.2618Y-5.8661
T2
X3.7992Y-6.6142
X3.8976Y-6.6142
X3.996Y-6.6142
T3
X3.335Y-5.3051
X3.335Y-5.4051
X3.335Y-5.5051
X3.435Y-5.3051
X3.435Y-5.4051
X3.435Y-5.5051
T0
M30
